Lab 4
…
## [1] "Cedar Rapids"   "Nixa"           "Seffner"        "Ft. Lauderdale"
## [5] "Naperville"     "Grand Prairie"

head(bioClean$state)

## [1] " Iowa"  " Mo."   " Fla."  " Fla."  " Ill."  " Texas"

How many players are there from each state?

statenum <- count(bioClean, state)
statenum

## # A tibble: 21 x 2
##    state            n
##    <chr>        <int>
##  1 " Ariz."         4
##  2 " Ark."          1
##  3 " Australia"     1
##  4 " Calif."        2
##  5 " Fla."         14
##  6 " Ga."           3
##  7 " Ill."          6
##  8 " Iowa"         42
##  9 " Kan."          4
## 10 " Mich"          1
## #  with 11 more rows
…
